==================SVMStandalone Test use_cosine = False=================
0.780915508784
0.38894907909
2.51895991333
==================SVMStandalone Test .use_cosine = True=================
0.683835087029
0.266522210184
3.89599133261
==================SVMStandalone Final .use_cosine = False =================
0.603366192898
0.2935
3.92875
==================SVMStandalone Final .use_cosine = True =================
0.546305760068
0.188
6.525
==================NBayes Test use_cosine = False=================
0.703422176561
0.33369447454
3.86240520043
==================NBayes Test .use_cosine = True=================
0.698123937679
0.370530877573
4.77573131094
==================NBayes Final .use_cosine = False =================
0.555318863973
0.2295
5.979
==================NBayes Final .use_cosine = True =================
0.546702042246
0.18425
6.64225
==================DecisionTree Test use_cosine = False=================
0.679358725335
0.319609967497
3.78006500542
==================DecisionTree Test .use_cosine = True=================
0.67377577068
0.313109425785
4.20043336945
==================DecisionTree Final .use_cosine = False =================
0.410470936042
0.223
5.8495
==================DecisionTree Final .use_cosine = True =================
0.504709961578
0.243
5.8535
